<svg xmlns="http://www.w3.org/2000/svg" width="45" height="47" viewBox="0 0 45 47">
  <g fill="#9AA3AD" fill-rule="evenodd">
    <path d="M22.025 19.025c.69-.69 1.5-1.025 2.475-1.025.975 0 1.784.336 2.475 1.025.69.69 1.025 1.5 1.025 2.475 0 .975-.336 1.785-1.025 2.475-.69.69-1.5 1.025-2.475 1.025-.976 0-1.785-.335-2.475-1.025-.69-.69-1.025-1.5-1.025-2.475 0-.975.335-1.785 1.025-2.475m9.037-16.098c-.235-.793.218-1.63 1.01-1.864.14-.042.284-.063.428-.063.66 0 1.25.44 1.437 1.073.114.384.072.79-.12 1.142-.19.352-.506.608-.89.722-.14.042-.284.063-.428.063-.66 0-1.25-.44-1.44-1.073M24.545 26c1.25 0 2.33-.45 3.213-1.337.883-.888 1.33-1.974 1.33-3.228 0-.96-.264-1.82-.783-2.57l4.44-13.174c.134.02.27.034.406.034.274 0 .547-.04.812-.12.73-.217 1.33-.707 1.693-1.38.362-.67.442-1.444.226-2.177C35.526.842 34.404 0 33.154 0c-.274 0-.547.04-.812.12-1.504.448-2.365 2.044-1.92 3.556.204.682.65 1.247 1.228 1.61L27.4 17.883c-.812-.672-1.77-1.013-2.856-1.013-1.248 0-2.33.45-3.213 1.337-.88.888-1.33 1.974-1.33 3.228 0 1.255.45 2.34 1.33 3.228.885.887 1.966 1.337 3.215 1.337"/>
    <path d="M41.69 40.988c-.828.105-1.575-.49-1.678-1.3-.104-.82.478-1.57 1.3-1.676.063-.008.127-.012.19-.012.752 0 1.39.564 1.486 1.31.104.82-.48 1.574-1.3 1.678m-11.244-8.512c-.383.353-.892.524-1.556.524h-8.776c-.665 0-1.174-.17-1.556-.524-.374-.347-.556-.82-.556-1.447 0-.33.01-.658.034-.97.02-.307.066-.645.133-1.005.065-.353.15-.685.248-.986.094-.288.223-.57.384-.846.15-.26.326-.484.52-.664.18-.166.406-.303.674-.406.245-.093.52-.146.82-.154.038.02.1.055.2.118.223.14.474.297.754.47.317.198.726.375 1.214.528.997.314 2.035.314 3.03 0 .49-.153.9-.33 1.217-.527l.752-.47c.1-.066.164-.1.2-.12.3.007.577.06.82.153.27.103.496.24.676.407.193.18.368.404.52.665.16.273.29.558.385.844.1.3.183.632.248.985.067.358.11.695.134 1.003.023.313.034.64.034.97 0 .626-.182 1.1-.556 1.446M4.5 46c-.827 0-1.5-.673-1.5-1.5S3.673 43 4.5 43c.34 0 .653.115.905.307l.448.55c.093.194.147.412.147.643 0 .827-.673 1.5-1.5 1.5m-2-32c-.827 0-1.5-.673-1.5-1.5S1.673 11 2.5 11s1.5.673 1.5 1.5S3.327 14 2.5 14m37.693 6.765c.265-.472.767-.765 1.31-.765.254 0 .507.066.73.193.35.196.602.516.71.902.11.385.06.79-.136 1.14-.265.472-.766.765-1.31.765-.254 0-.507-.067-.73-.193-.35-.196-.602-.516-.71-.902-.11-.386-.06-.79.136-1.14m1.66 16.096c-.12 0-.242.01-.36.025-.71.09-1.32.434-1.762.925l-8.194-4.828c.4-.535.604-1.2.604-1.984 0-.373-.014-.743-.04-1.1-.024-.363-.075-.76-.15-1.176-.077-.42-.175-.82-.292-1.184-.08-.245-.182-.485-.296-.722l8.472-3.282c.24.34.554.628.93.838.425.237.906.362 1.39.362 1.027 0 1.978-.552 2.48-1.44.372-.66.464-1.42.26-2.147-.206-.727-.684-1.33-1.345-1.7-.427-.237-.908-.362-1.393-.362-1.026 0-1.977.552-2.48 1.44-.336.598-.44 1.28-.305 1.943l-8.634 3.345c-.1-.122-.205-.238-.315-.343-.295-.28-.654-.504-1.068-.667-.413-.162-.872-.245-1.363-.245-.2 0-.388.08-.75.314-.226.146-.48.31-.763.488-.24.153-.57.297-.977.428-.79.255-1.6.254-2.39 0-.406-.13-.735-.275-.976-.428-.283-.18-.537-.342-.763-.49-.357-.23-.554-.312-.75-.312-.49 0-.95.083-1.363.245l-.02.01L5.407 14.037c.177-.368.28-.778.28-1.213C5.686 11.267 4.41 10 2.842 10 1.275 10 0 11.267 0 12.825c0 1.557 1.275 2.824 2.842 2.824.71 0 1.357-.263 1.855-.69l13.5 10.51h-.003c-.28.265-.53.59-.742.96-.205.36-.37.73-.49 1.108-.12.363-.217.762-.293 1.182-.077.42-.128.816-.153 1.177-.025.355-.038.725-.038 1.098 0 .98.313 1.772.932 2.358.038.037.08.07.12.103L6.945 42.03c-.497-.424-1.14-.68-1.845-.68-1.566 0-2.84 1.266-2.84 2.824C2.26 45.734 3.533 47 5.1 47c1.568 0 2.844-1.267 2.844-2.824 0-.44-.105-.854-.286-1.226l10.98-8.89c.358.108.748.167 1.173.167h8.998c.693 0 1.297-.15 1.81-.44l8.533 5.027c-.125.385-.173.8-.12 1.228.18 1.407 1.39 2.47 2.82 2.47.12 0 .24-.01.36-.024 1.554-.197 2.66-1.613 2.46-3.158-.18-1.407-1.39-2.47-2.817-2.47"/>
  </g>
</svg>
